LAB 3: Hip-hop
…
# A tibble: 1 × 2
  word  avg_score
  <chr>     <dbl>
1 5-0         4.2

Code

hip_hop |> 
  filter(ethnic == "white", age > 30, sex == "Male") |> 
  select(word, familiarity) |> 
  group_by(word) |> 
  summarize(avg_score = mean(familiarity)) |> 
  slice_min(avg_score)

# A tibble: 25 × 2
   word              avg_score
   <chr>                 <dbl>
 1 ay yo trip                1
 2 beezy                     1
 3 break someone out         1
 4 catch the vapors          1
 5 crossroads                1
 6 crump                     1
 7 dap                       1
 8 dollar cab                1
 9 domino                    1
10 duckets                   1
# … with 15 more rows

For white males older than 30 the most familiar and least familiar phrases on average were “5-0” and “ay yo trip”, “beezy”, “break someone out”, “catch the vapors”, “crossroads”, “crump”, “dap” 1

, “dollar cab”, “domino”, “duckets”, “face gator”, “fetti”, “finna”, “ghostride”, “good hair”, “grip grain”, “guap”, “humming”, “mail”, “plex”, “rollie”, “saditty”, “sweatbox”, “trill”, and “twurk”

Study Subject

Code

hip_hop |> 
  filter(city >= 10000 & city <= 60000, age >= 17 & age <= 23, ethnic == "white", sex == "Male") |> 
  slice_max(bieber)

# A tibble: 64 × 40
   word    subj  sex     age ethnic  city county  intl vocal class…¹  folk  rock
   <chr>   <chr> <chr> <dbl> <chr>  <dbl>  <dbl> <dbl> <dbl>   <dbl> <dbl> <dbl>
 1 [to be… p17   Male     18 white  56377 331582     0     1       0     0     1
 2 5-0     p17   Male     18 white  56377 331582     0     1       0     0     1
 3 A-town  p17   Male     18 white  56377 331582     0     1       0     0     1
 4 ashy    p17   Male     18 white  56377 331582     0     1       0     0     1
 5 ay yo … p17   Male     18 white  56377 331582     0     1       0     0     1
 6 ballin' p17   Male     18 white  56377 331582     0     1       0     0     1
 7 beezy   p17   Male     18 white  56377 331582     0     1       0     0     1
 8 bones   p17   Male     18 white  56377 331582     0     1       0     0     1
 9 boo     p17   Male     18 white  56377 331582     0     1       0     0     1
10 boughie p17   Male     18 white  56377 331582     0     1       0     0     1
# … with 54 more rows, 28 more variables: country <dbl>, pop <dbl>,
#   alternative <dbl>, hiphop <dbl>, unclassifiable <dbl>, countyBlack <dbl>,
#   jayz <dbl>, barkley <dbl>, boondocks <dbl>, monique <dbl>, bieber <dbl>,
#   asianMove <dbl>, blackMove <dbl>, hispanicMove <dbl>, nativeMove <dbl>,
#   SAAMEMove <dbl>, whiteMove <dbl>, blackWeekly <dbl>, jayz1 <dbl>,
#   boondocks1 <dbl>, familiarity <dbl>, trial <dbl>, fam1 <dbl>,
#   popularityScore <dbl>, numPreferredArtists <dbl>, …
…
